{
  "name": "citizenComplaints",
  "base": "PersistedModel",
  "idInjection": true,
  "options": {
    "validateUpsert": true
  },
  "properties": {
    "citizenId": {
      "type": "string",
      "required": true
    },
    "citizenName": {
      "type": "string",
      "required": true
    },
    "citizenMobileNumber": {
      "type": "string",
      "required": true
    },
    "citizenLocation": {
      "type": "string",
      "required": true
    },
    "department": {
      "type": "string",
      "required": true
    },
    "description": {
      "type": "string",
      "required": true
    }
  },
  "validations": [],
  "relations": {},
  "acls": [],
  "methods": {}
}
