{
  "name": "VehicleStream",
  "base": "PersistedModel",
  "idInjection": true,
  "options": {
    "validateUpsert": true
  },
  "properties": {
    "long": {
      "type": "string",
      "required": true
    },
    "latt": {
      "type": "string"
    },
    "fromTo": {
      "type": "string"
    }
  },
  "validations": [],
  "relations": {},
  "acls": [],
  "methods": {}
}
